<?xml version="1.0" encoding="UTF-8" standalone="no"?>
<svg xmlns="http://www.w3.org/2000/svg" xmlns:xlink="http://www.w3.org/1999/xlink" width="100.16671" height="101.08912" version="1.0">
  <defs>
    <linearGradient id="c">
      <stop offset="0" stop-color="#fff" stop-opacity="0"/>
      <stop offset="1" stop-color="#fff" stop-opacity=".5754717"/>
    </linearGradient>
    <linearGradient id="a">
      <stop offset="0" stop-opacity="0"/>
      <stop offset=".72131145" stop-opacity=".25471699"/>
      <stop offset=".91000003" stop-opacity=".1254902"/>
      <stop offset="1" stop-opacity="0"/>
    </linearGradient>
    <linearGradient id="b">
      <stop offset="0" stop-color="#fff" stop-opacity="0"/>
      <stop offset=".72000003" stop-color="#fff" stop-opacity=".85849059"/>
      <stop offset=".89999998" stop-color="#fff" stop-opacity=".70754719"/>
      <stop offset="1" stop-color="#fff" stop-opacity=".32075471"/>
    </linearGradient>
    <linearGradient xlink:href="#a" id="f" x1="68.374298" x2="67.91217" y1="-410.09869" y2="-478.5079" gradientTransform="matrix(1.579 0 0 -.72579 485.7033 -212.7072)" gradientUnits="userSpaceOnUse" spreadMethod="pad"/>
    <linearGradient xlink:href="#b" id="e" x1="406.06488" x2="406.06485" y1="290.50256" y2="276.29453" gradientTransform="matrix(4.79835 0 0 2.8689 -1354.79 -757.4729)" gradientUnits="userSpaceOnUse" spreadMethod="pad"/>
    <linearGradient xlink:href="#c" id="d" x1="436.48828" x2="436.5119" y1="-278.91284" y2="-299.88681" gradientTransform="matrix(4.59377 0 0 .3595 -1921.25 645.6879)" gradientUnits="userSpaceOnUse" spreadMethod="pad"/>
  </defs>
  <g transform="translate(-537.7543 -34.1283)">
    <path fill="#1d4458" fill-rule="evenodd" d="M537.7543 34.128392h96.51706c14.37487 31.592478-19.71415 69.792548 0 100.972068H537.7543V34.128392z"/>
    <path fill-rule="evenodd" d="M605.90922222 74.46800147c-7.70721045 1.95172307-14.60409033 5.8074573-19.17594684 11.7736021-8.5660513-1.73777366-18.91799348.198207-27.93113904 3.78179927-4.83619687 1.92285356-9.24695184 4.29173658-12.75350187 6.92555875-3.49647554 2.62625078-6.24540118 5.49417646-7.20866997 8.97091429-.33600761 1.12446019.07402125 2.32281319.97954313 3.04177718.9055262.71894051 2.17149269.78161078 3.16545234.21374547 18.17465033-10.06921154 34.3560749-12.93110941 47.43816997-6.34537272 1.2397811.6232774 2.77579448.26304972 3.58838115-.86177284 7.5633393-10.58030085 21.37279865-19.54913694 37.81970997-22.41582928 1.33775182-.24284576 2.33958203-1.39932017 2.35773669-2.74564069.0181879-1.34634582-.95588504-2.55675916-2.27537066-2.83325272-8.43943616-1.68779557-17.65985306-1.61863748-26.00436487.49447119zm2.54036365-13.20188307c-8.46300519.24440655-17.07659021 1.82266977-24.1034054 6.94336782-9.57518195-1.38276972-19.5679182-.71023908-28.66618997 2.8765381-5.941174 2.36525229-10.61311625 6.6372248-14.38269047 11.60534334-.04224742.06113337-.07563906.12791667-.09919097.19838193-.0526585.09154136-.08636756.19273202-.09919097.29757291.01282341.10484089.04653247.20603155.09919097.2975729.0235519.07046527.05694355.13724857.09919097.19838194.03005883.03593094.06326003.06913214.09919097.09919097.0826856.08804984.18451107.15591233.2975729.19838194.09830222.01888596.1992707.01888596.29757291 0a.78886374.78886374 0 0 0 .19838194 0c11.29186814-3.96941625 22.67251617-8.24554685 34.6176481-7.14174975 3.57912756.28144842 6.98275852 1.59565734 10.51424268 2.77734712.13010681.03380429.26665707.03380429.39676388 0 .10484088-.0128234.20603154-.04653246.2975729-.09919096.07046527-.0235519.13724856-.05694356.19838194-.09919097 9.40739844-9.0806872 23.04058608-11.37268101 35.60955778-13.9859266.03593094-.03005883.06913214-.06326003.09919097-.09919097.62095133-.2368839 1.04606002-.44196321 1.38867356-.79352775.17130677-.17578226.37022831-.37187884.39676388-.69433678.02653557-.32245793-.13664548-.60647739-.2975729-.79352775-.32185486-.37410072-.67614913-.55185093-1.09110066-.69433678-.41495154-.14248584-.9633427-.19692184-1.48786454-.2975729-2.09805563-.4025725-4.85388228-.62958492-5.85226715-.69433679-.0330425-.0020949-.06614848-.0020949-.09919097 0-2.76509506-.11937831-5.57126311-.18178133-8.43123235-.09919096z"/>
    <path fill="#fff" d="M545.7779 80.443027c16.0264-6.142258 30.5956-7.94906 41.51986-3.095807 8.92896-8.697417 28.65056-13.44337 35.03007-13.457054-23.17434-2.490983-32.77168 2.783121-37.3695 6.228968-14.90992-1.801854-28.87166-.190511-39.18009 10.322301m-4.29075 26.393155c20.15754-11.381 36.48422-13.439734 50.32191-6.51506 9.19502-14.736513 32.4303-23.268743 40.25261-23.508865-24.23494-5.196525-41.02609 6.018115-44.0885 12.328693-13.57898-3.748084-41.43335 5.492864-46.48636 17.693892"/>
    <path fill="url(#d)" d="M34.128391 537.75427h101.08903v7.9108653H34.128391z" transform="matrix(0 1 1 0 0 0)"/>
    <g transform="translate(1320.666 -354.4324) scale(3.17411)">
      <path fill-opacity=".0798122" d="M-218.44538 122.4156c4.52879 9.95317-6.21092 21.98943 0 31.8125h2.125c-6.21092-9.82307 4.52879-21.85933 0-31.8125h-2.125z"/>
      <path fill-opacity=".13145537" d="M-217.95505 122.4156c4.52879 9.95317-6.21092 21.98943 0 31.8125h1.63467c-6.21092-9.82307 4.52879-21.85933 0-31.8125h-1.63467z"/>
      <path fill-opacity=".19718311" d="M-217.40343 122.4156c4.52879 9.95317-6.21092 21.98943 0 31.8125h1.08305c-6.21092-9.82307 4.52879-21.85933 0-31.8125h-1.08305z"/>
      <path fill-opacity=".26760565" d="M-216.85181 122.4156c4.52879 9.95317-6.21092 21.98943 0 31.8125h.53143c-6.21092-9.82307 4.52879-21.85933 0-31.8125h-.53143z"/>
    </g>
    <path fill="url(#e)" d="M537.7543 34.128392h96.12386c10.23123 18.249081-3.33474 53.142677-5.54609 67.759468H537.7543V34.128392z"/>
    <path fill="url(#f)" d="M537.91943 135.10893h95.71526c-10.19369-17.19625-5.42209-33.69458-.94443-51.465967l-94.86851-.333336.09768 51.799303z"/>
  </g>
</svg>